Classifyer;Speed;Accuracy;TPR;FPR;TNR;FNR
ZeroR;0;72,8783;0;0;1;1
OneR - 50;0,03;79,5788;0,433;0,069;0,931;0,567
OneR - 100;0,04;77,7021;0,418;0,089;0,911;0,582
NaiveBayes;0,03;72,3153;0,078;0,037;0,963;0,922
J48;0,74;83,7214;0,608;0,078;0,922;0,392
SimpleLogestic;1,55;73,2397;0,038;0,009;0,991;0,962
SMO;0,25;72,8783;0;0;1;1
Nearest Neighbor (Ibk);0;76,4301;0,279;0,55;0,945;0,721
RandomForest;6,5;85,0351;0,655;0,077;0,923;0,345