=== Run information ===

Scheme:       weka.classifiers.trees.RandomForest -P 100 -I 100 -num-slots 1 -K 0 -M 1.0 -V 0.001 -S 1
Relation:     normalised_bcell
Instances:    14387
Attributes:   9
              chou_fasman
              emini
              kolaskar_tongaonkar
              parker
              isoelectric_point
              aromaticity
              hydrophobicity
              stability
              target
Test mode:    10-fold cross-validation

=== Classifier model (full training set) ===

RandomForest

Bagging with 100 iterations and base learner

weka.classifiers.trees.RandomTree -K 0 -M 1.0 -V 0.001 -S 1 -do-not-check-capabilities

Time taken to build model: 6.5 seconds

=== Stratified cross-validation ===
=== Summary ===

Correctly Classified Instances       12234               85.0351 %
Incorrectly Classified Instances      2153               14.9649 %
Kappa statistic                          0.6042
Mean absolute error                      0.2164
Root mean squared error                  0.3333
Relative absolute error                 54.7486 %
Root relative squared error             74.9643 %
Total Number of Instances            14387     

=== Detailed Accuracy By Class ===

                 TP Rate  FP Rate  Precision  Recall   F-Measure  MCC      ROC Area  PRC Area  Class
                 0,655    0,077    0,760      0,655    0,703      0,607    0,888     0,766     TRUE
                 0,923    0,345    0,878      0,923    0,900      0,607    0,888     0,947     FALSE
Weighted Avg.    0,850    0,273    0,846      0,850    0,847      0,607    0,888     0,898     

=== Confusion Matrix ===

    a    b   <-- classified as
 2554 1348 |    a = TRUE
  805 9680 |    b = FALSE

